{
    "instruction": {
        "message": "Paste the QR code image",
        "description": "Addon instruction, displayed in popup"
    },

    "copy": {
        "message": "Copy",
        "description": "Button label"
    }
} 
